module github.com/sorcero/terraform-provider-go-cat

go 1.17

require (
	github.com/hashicorp/terraform-plugin-sdk/v2 v2.13.0
	gitlab.com/sorcero/community/go-cat v0.0.11
)

require (
	github.com/Microsoft/go-winio v0.5.2 // indirect
	github.com/ProtonMail/go-crypto v0.0.0-20220407094043-a94812496cf5 // indirect
	github.com/acomagu/bufpipe v1.0.3 // indirect
	github.com/agext/levenshtein v1.2.3 // indirect
	github.com/apparentlymart/go-textseg/v13 v13.0.0 // indirect
	github.com/atsushinee/go-markdown-generator v0.0.0-20191121114853-83f9e1f68504 // indirect
	github.com/cpuguy83/go-md2man/v2 v2.0.1 // indirect
	github.com/emirpasic/gods v1.12.1 // indirect
	github.com/fatih/color v1.13.0 // indirect
	github.com/go-git/gcfg v1.5.0 // indirect
	github.com/go-git/go-billy/v5 v5.3.1 // indirect
	github.com/go-git/go-git/v5 v5.4.2 // indirect
	github.com/golang/protobuf v1.5.2 // indirect
	github.com/google/go-cmp v0.5.7 // indirect
	github.com/gopherjs/gopherjs v0.0.0-20211101210129-f9bde24e5ca2 // indirect
	github.com/hashicorp/errwrap v1.1.0 // indirect
	github.com/hashicorp/go-cty v1.4.1-0.20200414143053-d3edf31b6320 // indirect
	github.com/hashicorp/go-hclog v1.2.0 // indirect
	github.com/hashicorp/go-multierror v1.1.1 // indirect
	github.com/hashicorp/go-plugin v1.4.3 // indirect
	github.com/hashicorp/go-uuid v1.0.2 // indirect
	github.com/hashicorp/go-version v1.4.0 // indirect
	github.com/hashicorp/hcl/v2 v2.11.1 // indirect
	github.com/hashicorp/terraform-plugin-go v0.8.0 // indirect
	github.com/hashicorp/yamux v0.0.0-20211028200310-0bc27b27de87 // indirect
	github.com/imdario/mergo v0.3.12 // indirect
	github.com/jbenet/go-context v0.0.0-20150711004518-d14ea06fba99 // indirect
	github.com/jtolds/gls v4.20.0+incompatible // indirect
	github.com/kevinburke/ssh_config v1.2.0 // indirect
	github.com/mattn/go-colorable v0.1.12 // indirect
	github.com/mattn/go-isatty v0.0.14 // indirect
	github.com/mitchellh/copystructure v1.2.0 // indirect
	github.com/mitchellh/go-homedir v1.1.0 // indirect
	github.com/mitchellh/go-testing-interface v1.14.1 // indirect
	github.com/mitchellh/go-wordwrap v1.0.1 // indirect
	github.com/mitchellh/mapstructure v1.4.3 // indirect
	github.com/mitchellh/reflectwalk v1.0.2 // indirect
	github.com/oklog/run v1.1.0 // indirect
	github.com/russross/blackfriday/v2 v2.1.0 // indirect
	github.com/sergi/go-diff v1.2.0 // indirect
	github.com/smartystreets/assertions v1.2.1 // indirect
	github.com/urfave/cli/v2 v2.4.0 // indirect
	github.com/vmihailenco/msgpack v4.0.4+incompatible // indirect
	github.com/withmandala/go-log v0.1.0 // indirect
	github.com/xanzy/ssh-agent v0.3.1 // indirect
	github.com/zclconf/go-cty v1.10.0 // indirect
	golang.org/x/crypto v0.0.0-20220408190544-5352b0902921 // indirect
	golang.org/x/net v0.0.0-20220407224826-aac1ed45d8e3 // indirect
	golang.org/x/sys v0.0.0-20220408201424-a24fb2fb8a0f // indirect
	golang.org/x/term v0.0.0-20210927222741-03fcf44c2211 // indirect
	golang.org/x/text v0.3.7 // indirect
	google.golang.org/appengine v1.6.7 // indirect
	google.golang.org/genproto v0.0.0-20211118181313-81c1377c94b1 // indirect
	google.golang.org/grpc v1.45.0 // indirect
	google.golang.org/protobuf v1.27.1 // indirect
	gopkg.in/warnings.v0 v0.1.2 // indirect
	gopkg.in/yaml.v2 v2.4.0 // indirect
	gopkg.in/yaml.v3 v3.0.0-20210107192922-496545a6307b // indirect
)
